60
Coordinates from ORCA-job .\fullerene
  C   2.22569265044281      0.59374968579545      2.68706990293670
  C   3.13624264570864      0.15904987101413      1.63518428932690
  C   1.34503839230755     -0.30917762022351      3.25665723105983
  C   3.12002379548736     -1.15662280490007      1.20605087518735
  C   3.21979815168841     -1.46060652456563     -0.21595019227707
  C   3.25302273236085      1.24059387926820      0.66514341557851
  C   3.34774576015506      0.95189905423101     -0.68504914321189
  C   3.33075964403661     -0.43366539691024     -1.13703768037132
  C   -0.45200540413281      1.37238207941725      3.23291463203400
  C   0.47560425744711      2.32315390499801      2.63293121890893
  C   -0.02859912064529      0.09028167859825      3.53655761158251
  C   1.77975934172968      1.94394023961369      2.36715163781931
  C   2.41466020162690      2.34371182987497      1.11748721318222
  C   -0.26305399688890      3.12229933028734      1.66326302087047
  C   0.33978924957879      3.50179120687373      0.47673224264381
  C   1.71333184166668      3.10248488629453      0.19679660231652
  C   -2.14007892099935     -0.84764686398871      2.68903072513261
  C   -2.58603714747206      0.50252473074521      2.36908490742071
  C   -0.89448100285523     -1.04865397546927      3.25767464052011
  C   -1.76390173545477      1.58382536392588      2.63396691722531
  C   -1.64709873091232      2.66540703042192      1.66390226458241
  C   -3.33512475932439      0.44525650429027      1.12008041434981
  C   -3.22428541735930      1.47222802957580      0.19902226172412
  C   -2.35839587422438      2.61098020637133      0.47797283835529
  C   -0.50567322416525     -2.99839083080792      1.80719064524829
  C   -1.81759125001619     -2.78698953448630      1.20846470495605
  C   -0.05606068708342     -2.15170033448719      2.80536813840757
  C   -2.61362087131102     -1.73943940704761      1.63768912098488
  C   -3.35220138827369     -0.94033776432414      0.66811788501690
  C   -1.71792186649883     -3.09092701353302     -0.21367950006292
  C   -2.41929327146901     -2.33227243041396     -1.13441385582636
  C   -3.25757037513010     -1.22902290496072     -0.68207148662981
  C   2.19244448268133     -2.10733483761902      1.80591859349063
  C   1.71892595005079     -2.99905806625094      0.75466643160523
  C   1.32783561550156     -1.69477124995248      2.80480622853736
  C   0.40469644469802     -3.43305947032699      0.75545178639395
  C   -0.34425644941477     -3.49031119032219     -0.49356880979893
  C   2.35387437494439     -2.59937952113719     -0.49482086030323
  C   1.64260008114852     -2.65376525097248     -1.68079412102192
  C   0.25848373080991     -3.11072580551557     -1.68011456085123
  C   -2.23026198127773     -0.58217458439948     -2.70391952728236
  C   -1.78430117223206     -1.93248679212322     -2.38398297294358
  C   -0.48011291952537     -2.31163793160050     -2.64968901967242
  C   -1.34949631096972      0.32067497775363     -3.27347331130664
  C   -2.19702394372110      2.11905866455715     -1.82285818941662
  C   -3.12456719880563      1.16818223138906     -1.22294766895393
  C   -3.14076402942639     -0.14745055030000     -1.65212615426089
  C   -1.33247891714041      1.70628754804835     -2.82160858069064
  C   0.50118973522184      3.00991803865482     -1.82407170480481
  C   -0.40932397787318      3.44460568375604     -0.77221868160916
  C   -1.72352118200504      3.01075179647999     -0.77164098106422
  C   0.05159205786801      2.16325544891157     -2.82221673597170
  C   2.13563213392388      0.85934190238597     -2.70592548928476
  C   2.60912074159014      1.75103399461734     -1.65470242198449
  C   1.81309569585801      2.79849101435542     -1.22518157516848
  C   0.88993624294287      1.06006277876949     -3.27450175003081
  C   0.44747491164348     -1.36074937717666     -3.24961373064576
  C   1.75938700653173     -1.57219254453738     -2.65082195746168
  C   2.58160021126051     -0.49092799116252     -2.38597437856843
  C   0.02403504569626     -0.07867502176091     -3.55338335592224
